%YAML 1.1
%TAG !u! tag:unity3d.com,2011:
--- !u!74 &7400000
AnimationClip:
  m_ObjectHideFlags: 0
  m_CorrespondingSourceObject: {fileID: 0}
  m_PrefabInstance: {fileID: 0}
  m_PrefabAsset: {fileID: 0}
  m_Name: JumpEnemy
  serializedVersion: 6
  m_Legacy: 0
  m_Compressed: 0
  m_UseHighQualityCurve: 1
  m_RotationCurves: []
  m_CompressedRotationCurves: []
  m_EulerCurves: []
  m_PositionCurves:
  - curve:
      serializedVersion: 2
      m_Curve:
      - serializedVersion: 3
        time: 0
        value: {x: 0, y: 0, z: 0}
        inSlope: {x: 0, y: 0, z: 0}
        outSlope: {x: 0, y: 0, z: 0}
        tangentMode: 0
        weightedMode: 0
        inWeight: {x: 0.33333334, y: 0.33333334, z: 0.33333334}
        outWeight: {x: 0.33333334, y: 0.33333334, z: 0.33333334}
      - serializedVersion: 3
        time: 0.083333336
        value: {x: 0, y: 0, z: 0}
        inSlope: {x: 0, y: 0, z: 0}
        outSlope: {x: 0, y: 0, z: 0}
        tangentMode: 0
        weightedMode: 0
        inWeight: {x: 0.33333334, y: 0.33333334, z: 0.33333334}
        outWeight: {x: 0.33333334, y: 0.33333334, z: 0.33333334}
      - serializedVersion: 3
        time: 0.6666667
        value: {x: 0, y: 0, z: 0}
        inSlope: {x: 0, y: 0, z: 0}
        outSlope: {x: 0, y: 0, z: 0}
        tangentMode: 0
        weightedMode: 0
        inWeight: {x: 0.33333334, y: 0.33333334, z: 0.33333334}
        outWeight: {x: 0.33333334, y: 0.33333334, z: 0.33333334}
      m_PreInfinity: 2
      m_PostInfinity: 2
      m_RotationOrder: 4
    path: 
  m_ScaleCurves: []
  m_FloatCurves: []
  m_PPtrCurves:
  - curve:
    - time: 0
      value: {fileID: 21300026, guid: e59c501cb7de7bb41b0b6f97a460f3a4, type: 3}
    - time: 0.083333336
      value: {fileID: 21300028, guid: e59c501cb7de7bb41b0b6f97a460f3a4, type: 3}
    - time: 0.6666667
      value: {fileID: 21300028, guid: e59c501cb7de7bb41b0b6f97a460f3a4, type: 3}
    attribute: m_Sprite
    path: Layers/Weapon Back
    classID: 212
    script: {fileID: 0}
  - curve:
    - time: 0
      value: {fileID: 21300026, guid: 8282e73bc91b0b54eb98de924d8e19fb, type: 3}
    - time: 0.083333336
      value: {fileID: 21300028, guid: 8282e73bc91b0b54eb98de924d8e19fb, type: 3}
    - time: 0.6666667
      value: {fileID: 21300028, guid: 8282e73bc91b0b54eb98de924d8e19fb, type: 3}
    attribute: m_Sprite
    path: Layers/Hair Back
    classID: 212
    script: {fileID: 0}
  - curve:
    - time: 0
      value: {fileID: 21300026, guid: 6eb409c569a50654ca7712f22f31422b, type: 3}
    - time: 0.083333336
      value: {fileID: 21300028, guid: 6eb409c569a50654ca7712f22f31422b, type: 3}
    - time: 0.6666667
      value: {fileID: 21300028, guid: 6eb409c569a50654ca7712f22f31422b, type: 3}
    attribute: m_Sprite
    path: Layers/Body
    classID: 212
    script: {fileID: 0}
  - curve:
    - time: 0
      value: {fileID: 21300026, guid: edd435eb60890604f8ff907fe44674b6, type: 3}
    - time: 0.083333336
      value: {fileID: 21300028, guid: edd435eb60890604f8ff907fe44674b6, type: 3}
    - time: 0.6666667
      value: {fileID: 21300028, guid: edd435eb60890604f8ff907fe44674b6, type: 3}
    attribute: m_Sprite
    path: Layers/Armor
    classID: 212
    script: {fileID: 0}
  - curve:
    - time: 0
      value: {fileID: 21300026, guid: af113ba738e3be64c8919f6a9fe06781, type: 3}
    - time: 0.083333336
      value: {fileID: 21300028, guid: af113ba738e3be64c8919f6a9fe06781, type: 3}
    - time: 0.6666667
      value: {fileID: 21300028, guid: af113ba738e3be64c8919f6a9fe06781, type: 3}
    attribute: m_Sprite
    path: Layers/Eyes
    classID: 212
    script: {fileID: 0}
  - curve:
    - time: 0
      value: {fileID: 21300026, guid: 79c8bae54c14a7d4fab571dbc30b95e3, type: 3}
    - time: 0.083333336
      value: {fileID: 21300028, guid: 79c8bae54c14a7d4fab571dbc30b95e3, type: 3}
    - time: 0.6666667
      value: {fileID: 21300028, guid: 79c8bae54c14a7d4fab571dbc30b95e3, type: 3}
    attribute: m_Sprite
    path: Layers/Hair Front
    classID: 212
    script: {fileID: 0}
  - curve:
    - time: 0
      value: {fileID: 21300026, guid: e59c501cb7de7bb41b0b6f97a460f3a4, type: 3}
    - time: 0.083333336
      value: {fileID: 21300028, guid: e59c501cb7de7bb41b0b6f97a460f3a4, type: 3}
    - time: 0.6666667
      value: {fileID: 21300028, guid: e59c501cb7de7bb41b0b6f97a460f3a4, type: 3}
    attribute: m_Sprite
    path: Layers/Weapon Front
    classID: 212
    script: {fileID: 0}
  m_SampleRate: 60
  m_WrapMode: 1
  m_Bounds:
    m_Center: {x: 0, y: 0, z: 0}
    m_Extent: {x: 0, y: 0, z: 0}
  m_ClipBindingConstant:
    genericBindings:
    - serializedVersion: 2
      path: 3278434365
      attribute: 0
      script: {fileID: 0}
      typeID: 212
      customType: 23
      isPPtrCurve: 1
    - serializedVersion: 2
      path: 3566640183
      attribute: 0
      script: {fileID: 0}
      typeID: 212
      customType: 23
      isPPtrCurve: 1
    - serializedVersion: 2
      path: 2734027763
      attribute: 0
      script: {fileID: 0}
      typeID: 212
      customType: 23
      isPPtrCurve: 1
    - serializedVersion: 2
      path: 3196441090
      attribute: 0
      script: {fileID: 0}
      typeID: 212
      customType: 23
      isPPtrCurve: 1
    - serializedVersion: 2
      path: 3729247447
      attribute: 0
      script: {fileID: 0}
      typeID: 212
      customType: 23
      isPPtrCurve: 1
    - serializedVersion: 2
      path: 4265753259
      attribute: 0
      script: {fileID: 0}
      typeID: 212
      customType: 23
      isPPtrCurve: 1
    - serializedVersion: 2
      path: 511716825
      attribute: 0
      script: {fileID: 0}
      typeID: 212
      customType: 23
      isPPtrCurve: 1
    - serializedVersion: 2
      path: 0
      attribute: 1
      script: {fileID: 0}
      typeID: 4
      customType: 0
      isPPtrCurve: 0
    pptrCurveMapping:
    - {fileID: 21300026, guid: e59c501cb7de7bb41b0b6f97a460f3a4, type: 3}
    - {fileID: 21300028, guid: e59c501cb7de7bb41b0b6f97a460f3a4, type: 3}
    - {fileID: 21300028, guid: e59c501cb7de7bb41b0b6f97a460f3a4, type: 3}
    - {fileID: 21300026, guid: 8282e73bc91b0b54eb98de924d8e19fb, type: 3}
    - {fileID: 21300028, guid: 8282e73bc91b0b54eb98de924d8e19fb, type: 3}
    - {fileID: 21300028, guid: 8282e73bc91b0b54eb98de924d8e19fb, type: 3}
    - {fileID: 21300026, guid: 6eb409c569a50654ca7712f22f31422b, type: 3}
    - {fileID: 21300028, guid: 6eb409c569a50654ca7712f22f31422b, type: 3}
    - {fileID: 21300028, guid: 6eb409c569a50654ca7712f22f31422b, type: 3}
    - {fileID: 21300026, guid: edd435eb60890604f8ff907fe44674b6, type: 3}
    - {fileID: 21300028, guid: edd435eb60890604f8ff907fe44674b6, type: 3}
    - {fileID: 21300028, guid: edd435eb60890604f8ff907fe44674b6, type: 3}
    - {fileID: 21300026, guid: af113ba738e3be64c8919f6a9fe06781, type: 3}
    - {fileID: 21300028, guid: af113ba738e3be64c8919f6a9fe06781, type: 3}
    - {fileID: 21300028, guid: af113ba738e3be64c8919f6a9fe06781, type: 3}
    - {fileID: 21300026, guid: 79c8bae54c14a7d4fab571dbc30b95e3, type: 3}
    - {fileID: 21300028, guid: 79c8bae54c14a7d4fab571dbc30b95e3, type: 3}
    - {fileID: 21300028, guid: 79c8bae54c14a7d4fab571dbc30b95e3, type: 3}
    - {fileID: 21300026, guid: e59c501cb7de7bb41b0b6f97a460f3a4, type: 3}
    - {fileID: 21300028, guid: e59c501cb7de7bb41b0b6f97a460f3a4, type: 3}
    - {fileID: 21300028, guid: e59c501cb7de7bb41b0b6f97a460f3a4, type: 3}
  m_AnimationClipSettings:
    serializedVersion: 2
    m_AdditiveReferencePoseClip: {fileID: 0}
    m_AdditiveReferencePoseTime: 0
    m_StartTime: 0
    m_StopTime: 0.68333334
    m_OrientationOffsetY: 0
    m_Level: 0
    m_CycleOffset: 0
    m_HasAdditiveReferencePose: 0
    m_LoopTime: 1
    m_LoopBlend: 0
    m_LoopBlendOrientation: 0
    m_LoopBlendPositionY: 0
    m_LoopBlendPositionXZ: 0
    m_KeepOriginalOrientation: 0
    m_KeepOriginalPositionY: 1
    m_KeepOriginalPositionXZ: 0
    m_HeightFromFeet: 0
    m_Mirror: 0
  m_EditorCurves:
  - curve:
      serializedVersion: 2
      m_Curve:
      - serializedVersion: 3
        time: 0
        value: 0
        inSlope: 0
        outSlope: 0
        tangentMode: 136
        weightedMode: 0
        inWeight: 0.33333334
        outWeight: 0.33333334
      - serializedVersion: 3
        time: 0.083333336
        value: 0
        inSlope: 0
        outSlope: 0
        tangentMode: 136
        weightedMode: 0
        inWeight: 0.33333334
        outWeight: 0.33333334
      - serializedVersion: 3
        time: 0.6666667
        value: 0
        inSlope: 0
        outSlope: 0
        tangentMode: 136
        weightedMode: 0
        inWeight: 0.33333334
        outWeight: 0.33333334
      m_PreInfinity: 2
      m_PostInfinity: 2
      m_RotationOrder: 4
    attribute: m_LocalPosition.x
    path: 
    classID: 4
    script: {fileID: 0}
  - curve:
      serializedVersion: 2
      m_Curve:
      - serializedVersion: 3
        time: 0
        value: 0
        inSlope: 0
        outSlope: 0
        tangentMode: 136
        weightedMode: 0
        inWeight: 0.33333334
        outWeight: 0.33333334
      - serializedVersion: 3
        time: 0.083333336
        value: 0
        inSlope: 0
        outSlope: 0
        tangentMode: 136
        weightedMode: 0
        inWeight: 0.33333334
        outWeight: 0.33333334
      - serializedVersion: 3
        time: 0.6666667
        value: 0
        inSlope: 0
        outSlope: 0
        tangentMode: 136
        weightedMode: 0
        inWeight: 0.33333334
        outWeight: 0.33333334
      m_PreInfinity: 2
      m_PostInfinity: 2
      m_RotationOrder: 4
    attribute: m_LocalPosition.y
    path: 
    classID: 4
    script: {fileID: 0}
  - curve:
      serializedVersion: 2
      m_Curve:
      - serializedVersion: 3
        time: 0
        value: 0
        inSlope: 0
        outSlope: 0
        tangentMode: 136
        weightedMode: 0
        inWeight: 0.33333334
        outWeight: 0.33333334
      - serializedVersion: 3
        time: 0.083333336
        value: 0
        inSlope: 0
        outSlope: 0
        tangentMode: 136
        weightedMode: 0
        inWeight: 0.33333334
        outWeight: 0.33333334
      - serializedVersion: 3
        time: 0.6666667
        value: 0
        inSlope: 0
        outSlope: 0
        tangentMode: 136
        weightedMode: 0
        inWeight: 0.33333334
        outWeight: 0.33333334
      m_PreInfinity: 2
      m_PostInfinity: 2
      m_RotationOrder: 4
    attribute: m_LocalPosition.z
    path: 
    classID: 4
    script: {fileID: 0}
  m_EulerEditorCurves: []
  m_HasGenericRootTransform: 1
  m_HasMotionFloatCurves: 0
  m_Events:
  - time: 0.083333336
    functionName: OnJump
    data: 
    objectReferenceParameter: {fileID: 0}
    floatParameter: 0
    intParameter: 0
    messageOptions: 0
